Homerwork 1
…
-   Had an arrival delay of two or more hours (\> 120 minutes)
-   Flew to Houston (IAH or HOU)
-   Were operated by United (`UA`), American (`AA`), or Delta (`DL`)
-   Departed in summer (July, August, and September)
-   Arrived more than two hours late, but didn't leave late
-   Were delayed by at least an hour, but made up over 30 minutes in flight

Code

# Had an arrival delay of two or more hours (> 120 minutes)

flights %>%
  filter(arr_delay >= 120)

# A tibble: 10,200 × 19
    year month   day dep_time sched_dep_time dep_delay arr_time sched_arr_time
   <int> <int> <int>    <int>          <int>     <dbl>    <int>          <int>
 1  2013     1     1      811            630       101     1047            830
 2  2013     1     1      848           1835       853     1001           1950
 3  2013     1     1      957            733       144     1056            853
 4  2013     1     1     1114            900       134     1447           1222
 5  2013     1     1     1505           1310       115     1638           1431
 6  2013     1     1     1525           1340       105     1831           1626
 7  2013     1     1     1549           1445        64     1912           1656
 8  2013     1     1     1558           1359       119     1718           1515
 9  2013     1     1     1732           1630        62     2028           1825
10  2013     1     1     1803           1620       103     2008           1750
# ℹ 10,190 more rows
# ℹ 11 more variables: arr_delay <dbl>, carrier <chr>, flight <int>,
#   tailnum <chr>, origin <chr>, dest <chr>, air_time <dbl>, distance <dbl>,
#   hour <dbl>, minute <dbl>, time_hour <dttm>

Code

# Flew to Houston (IAH or HOU)

flights %>%
  filter(dest %in% c("HOU", "IAH"))

# A tibble: 9,313 × 19
    year month   day dep_time sched_dep_time dep_delay arr_time sched_arr_time
   <int> <int> <int>    <int>          <int>     <dbl>    <int>          <int>
 1  2013     1     1      517            515         2      830            819
 2  2013     1     1      533            529         4      850            830
 3  2013     1     1      623            627        -4      933            932
 4  2013     1     1      728            732        -4     1041           1038
 5  2013     1     1      739            739         0     1104           1038
 6  2013     1     1      908            908         0     1228           1219
 7  2013     1     1     1028           1026         2     1350           1339
 8  2013     1     1     1044           1045        -1     1352           1351
 9  2013     1     1     1114            900       134     1447           1222
10  2013     1     1     1205           1200         5     1503           1505
# ℹ 9,303 more rows
# ℹ 11 more variables: arr_delay <dbl>, carrier <chr>, flight <int>,
#   tailnum <chr>, origin <chr>, dest <chr>, air_time <dbl>, distance <dbl>,
#   hour <dbl>, minute <dbl>, time_hour <dttm>

Code

# Were operated by United (`UA`), American (`AA`), or Delta (`DL`)

flights %>%
  filter(carrier %in% c("UA", "AA", "DL"))

# A tibble: 139,504 × 19
    year month   day dep_time sched_dep_time dep_delay arr_time sched_arr_time
   <int> <int> <int>    <int>          <int>     <dbl>    <int>          <int>
 1  2013     1     1      517            515         2      830            819
 2  2013     1     1      533            529         4      850            830
 3  2013     1     1      542            540         2      923            850
 4  2013     1     1      554            600        -6      812            837
 5  2013     1     1      554            558        -4      740            728
 6  2013     1     1      558            600        -2      753            745
 7  2013     1     1      558            600        -2      924            917
 8  2013     1     1      558            600        -2      923            937
 9  2013     1     1      559            600        -1      941            910
10  2013     1     1      559            600        -1      854            902
# ℹ 139,494 more rows
# ℹ 11 more variables: arr_delay <dbl>, carrier <chr>, flight <int>,
#   tailnum <chr>, origin <chr>, dest <chr>, air_time <dbl>, distance <dbl>,
#   hour <dbl>, minute <dbl>, time_hour <dttm>

Code

# Departed in summer (July, August, and September)

flights %>%
  filter(month %in% c(7, 8, 9))  

# A tibble: 86,326 × 19
    year month   day dep_time sched_dep_time dep_delay arr_time sched_arr_time
   <int> <int> <int>    <int>          <int>     <dbl>    <int>          <int>
 1  2013     7     1        1           2029       212      236           2359
 2  2013     7     1        2           2359         3      344            344
 3  2013     7     1       29           2245       104      151              1
 4  2013     7     1       43           2130       193      322             14
 5  2013     7     1       44           2150       174      300            100
 6  2013     7     1       46           2051       235      304           2358
 7  2013     7     1       48           2001       287      308           2305
 8  2013     7     1       58           2155       183      335             43
 9  2013     7     1      100           2146       194      327             30
10  2013     7     1      100           2245       135      337            135
# ℹ 86,316 more rows
# ℹ 11 more variables: arr_delay <dbl>, carrier <chr>, flight <int>,
#   tailnum <chr>, origin <chr>, dest <chr>, air_time <dbl>, distance <dbl>,
#   hour <dbl>, minute <dbl>, time_hour <dttm>
…
Code

# Were delayed by at least an hour, but made up over 30 minutes in flight

flights %>%
  filter(dep_delay-arr_delay> 30 , dep_delay >= 60)

# A tibble: 1,844 × 19
    year month   day dep_time sched_dep_time dep_delay arr_time sched_arr_time
   <int> <int> <int>    <int>          <int>     <dbl>    <int>          <int>
 1  2013     1     1     2205           1720       285       46           2040
 2  2013     1     1     2326           2130       116      131             18
 3  2013     1     3     1503           1221       162     1803           1555
 4  2013     1     3     1839           1700        99     2056           1950
 5  2013     1     3     1850           1745        65     2148           2120
 6  2013     1     3     1941           1759       102     2246           2139
 7  2013     1     3     1950           1845        65     2228           2227
 8  2013     1     3     2015           1915        60     2135           2111
 9  2013     1     3     2257           2000       177       45           2224
10  2013     1     4     1917           1700       137     2135           1950
# ℹ 1,834 more rows
# ℹ 11 more variables: arr_delay <dbl>, carrier <chr>, flight <int>,
#   tailnum <chr>, origin <chr>, dest <chr>, air_time <dbl>, distance <dbl>,
#   hour <dbl>, minute <dbl>, time_hour <dttm>
…
# plane that travel the most 

planethattraveledthemost <- filter(joint_flights_planes, num_flights== max(num_flights))$tailnum

# print 
planethattraveledthemost

[1] NA

Code

joint_flights_planes

# A tibble: 4,044 × 10
   tailnum num_flights  year type  manufacturer model engines seats speed engine
   <chr>         <int> <int> <chr> <chr>        <chr>   <int> <int> <int> <chr> 
 1 <NA>           2512    NA <NA>  <NA>         <NA>       NA    NA    NA <NA>  
 2 N725MQ          575    NA <NA>  <NA>         <NA>       NA    NA    NA <NA>  
 3 N722MQ          513    NA <NA>  <NA>         <NA>       NA    NA    NA <NA>  
 4 N723MQ          507    NA <NA>  <NA>         <NA>       NA    NA    NA <NA>  
 5 N711MQ          486  1976 Fixe… GULFSTREAM … G115…       2    22    NA Turbo…
 6 N713MQ          483    NA <NA>  <NA>         <NA>       NA    NA    NA <NA>  
 7 N258JB          427  2006 Fixe… EMBRAER      ERJ …       2    20    NA Turbo…
 8 N298JB          407  2009 Fixe… EMBRAER      ERJ …       2    20    NA Turbo…
 9 N353JB          404  2012 Fixe… EMBRAER      ERJ …       2    20    NA Turbo…
10 N351JB          402  2012 Fixe… EMBRAER      ERJ …       2    20    NA Turbo…
# ℹ 4,034 more rows

Code

# plane with more than 50 seats

fiftyseats <- joint_flights_planes %>%
  filter(seats > 50)

plane_fifty <- filter(fiftyseats, num_flights== max(num_flights))$tailnum

# print 

fiftyseats

# A tibble: 3,200 × 10
   tailnum num_flights  year type  manufacturer model engines seats speed engine
   <chr>         <int> <int> <chr> <chr>        <chr>   <int> <int> <int> <chr> 
 1 N328AA          393  1986 Fixe… BOEING       767-…       2   255    NA Turbo…
 2 N338AA          388  1987 Fixe… BOEING       767-…       2   255    NA Turbo…
 3 N327AA          387  1986 Fixe… BOEING       767-…       2   255    NA Turbo…
 4 N335AA          385  1987 Fixe… BOEING       767-…       2   255    NA Turbo…
 5 N323AA          357  1986 Fixe… BOEING       767-…       2   255    NA Turbo…
 6 N319AA          354  1985 Fixe… BOEING       767-…       2   255    NA Turbo…
 7 N336AA          353  1987 Fixe… BOEING       767-…       2   255    NA Turbo…
 8 N329AA          344  1987 Fixe… BOEING       767-…       2   255    NA Turbo…
 9 N789JB          332  2011 Fixe… AIRBUS       A320…       2   200    NA Turbo…
10 N324AA          328  1986 Fixe… BOEING       767-…       2   255    NA Turbo…
# ℹ 3,190 more rows
…
flights_man <- flights %>%
  inner_join(planes, by = 'tailnum') %>% 
  mutate(manufacturer = case_when(
    grepl("BOEING", manufacturer) ~ "Boeing",
    grepl("AIRBUS INDUSTRIE", manufacturer) ~ "Airbus Industrie",
    grepl("EMBRAER", manufacturer) ~ "Embraer",
    grepl("BOMBARDIER INC", manufacturer) ~ "Bombardier Inc",
    grepl("AIRBUS", manufacturer) ~ "Airbus",
    TRUE ~ "Other"
  ))

flights_man

# A tibble: 284,170 × 27
   year.x month   day dep_time sched_dep_time dep_delay arr_time sched_arr_time
    <int> <int> <int>    <int>          <int>     <dbl>    <int>          <int>
 1   2013     1     1      517            515         2      830            819
 2   2013     1     1      533            529         4      850            830
 3   2013     1     1      542            540         2      923            850
 4   2013     1     1      544            545        -1     1004           1022
 5   2013     1     1      554            600        -6      812            837
 6   2013     1     1      554            558        -4      740            728
 7   2013     1     1      555            600        -5      913            854
 8   2013     1     1      557            600        -3      709            723
 9   2013     1     1      557            600        -3      838            846
10   2013     1     1      558            600        -2      849            851
# ℹ 284,160 more rows
# ℹ 19 more variables: arr_delay <dbl>, carrier <chr>, flight <int>,
#   tailnum <chr>, origin <chr>, dest <chr>, air_time <dbl>, distance <dbl>,
#   hour <dbl>, minute <dbl>, time_hour <dttm>, year.y <int>, type <chr>,
#   manufacturer <chr>, model <chr>, engines <int>, seats <int>, speed <int>,
#   engine <chr>
…
Code

#What is the oldest plane (specified by the tailnum variable) that flew from New York City airports in 2013?
# Filter flights from New York airports
flights_nyc <- flights %>%
  filter(origin %in% c("JFK", "LGA", "EWR"))

# Left join to planes table to know the details on the planes
flights_nyc_planes <- flights_nyc %>%
  left_join(planes, by = "tailnum") %>%
  arrange(year.y) 
flights_nyc_planes

# A tibble: 336,776 × 27
   year.x month   day dep_time sched_dep_time dep_delay arr_time sched_arr_time
    <int> <int> <int>    <int>          <int>     <dbl>    <int>          <int>
 1   2013     1    30      741            745        -4     1059           1125
 2   2013    10     7     1525           1530        -5     1915           1845
 3   2013    10     8     1737           1735         2     2052           2055
 4   2013    11     7      817            745        32     1140           1100
 5   2013    11    12     1528           1530        -2     1837           1845
 6   2013    12    17     1043           1030        13     1416           1355
 7   2013    12    18      808            800         8     1146           1135
 8   2013     2     1     1526           1530        -4     1915           1910
 9   2013     2     3     1036           1030         6     1411           1355
10   2013     2     7      742            745        -3     1114           1125
# ℹ 336,766 more rows
# ℹ 19 more variables: arr_delay <dbl>, carrier <chr>, flight <int>,
#   tailnum <chr>, origin <chr>, dest <chr>, air_time <dbl>, distance <dbl>,
#   hour <dbl>, minute <dbl>, time_hour <dttm>, year.y <int>, type <chr>,
#   manufacturer <chr>, model <chr>, engines <int>, seats <int>, speed <int>,
#   engine <chr>
…
# A tibble: 1 × 1
  tailnum
  <chr>  
1 N381AA 

Code

#How many airplanes that flew from New York City are included in the planes table?
#remove lines with NA values and remove repeated tailnum
planes_clean <-  na.omit(flights_nyc_planes) %>%
  distinct(tailnum)

planes_clean

# A tibble: 23 × 1
   tailnum
   <chr>  
 1 N381AA 
 2 N201AA 
 3 N567AA 
 4 N378AA 
 5 N615AA 
 6 N425AA 
 7 N364AA 
 8 N621AA 
 9 N508AA 
10 N675MC 
# ℹ 13 more rows
…
# What is the median arrival delay on a month-by-month basis in each airport?

median_delay <- flights %>%
  group_by(origin, month) %>%
  summarize(median_arr_delay=median(arr_delay, na.rm = TRUE))

`summarise()` has grouped output by 'origin'. You can override using the
`.groups` argument.

Code

median_delay

# A tibble: 36 × 3
# Groups:   origin [3]
   origin month median_arr_delay
   <chr>  <int>            <dbl>
 1 EWR        1                0
 2 EWR        2               -2
 3 EWR        3               -4
 4 EWR        4               -1
 5 EWR        5               -6
 6 EWR        6               -1
 7 EWR        7               -2
 8 EWR        8               -5
 9 EWR        9              -13
10 EWR       10               -6
# ℹ 26 more rows
…
#For each airline, plot the median arrival delay for each month and origin airport.

median_delay_airline <- flights %>%
  group_by(carrier, origin,month) %>%
  summarize(median_arr_delay_air=median(arr_delay, na.rm = TRUE))

`summarise()` has grouped output by 'carrier', 'origin'. You can override using
the `.groups` argument.

Code

median_delay_airline

# A tibble: 399 × 4
# Groups:   carrier, origin [35]
   carrier origin month median_arr_delay_air
   <chr>   <chr>  <int>                <dbl>
 1 9E      EWR        1                 -1  
 2 9E      EWR        2                 -8  
 3 9E      EWR        3                -14  
 4 9E      EWR        4                -15.5
 5 9E      EWR        5                -11  
 6 9E      EWR        6                 -5.5
 7 9E      EWR        7                 -4  
 8 9E      EWR        8                 -8  
 9 9E      EWR        9                -14.5
10 9E      EWR       10                 -9  
# ℹ 389 more rows
…
Problem 8: Let’s take a closer look at what carriers service the route to San Francisco International (SFO). Join the flights and airlines tables and count which airlines flew the most to SFO. Produce a new dataframe, fly_into_sfo that contains three variables: the name of the airline, e.g., United Air Lines Inc. not UA, the count (number) of times it flew to SFO, and the percent of the trips that that particular airline flew to SFO.

Code

# join tables
joint_flights_airlines <- airlines %>%
  left_join(flights, by = "carrier") 

joint_flights_airlines

# A tibble: 336,776 × 20
   carrier name      year month   day dep_time sched_dep_time dep_delay arr_time
   <chr>   <chr>    <int> <int> <int>    <int>          <int>     <dbl>    <int>
 1 9E      Endeavo…  2013     1     1      810            810         0     1048
 2 9E      Endeavo…  2013     1     1     1451           1500        -9     1634
 3 9E      Endeavo…  2013     1     1     1452           1455        -3     1637
 4 9E      Endeavo…  2013     1     1     1454           1500        -6     1635
 5 9E      Endeavo…  2013     1     1     1507           1515        -8     1651
 6 9E      Endeavo…  2013     1     1     1530           1530         0     1650
 7 9E      Endeavo…  2013     1     1     1546           1540         6     1753
 8 9E      Endeavo…  2013     1     1     1550           1550         0     1844
 9 9E      Endeavo…  2013     1     1     1552           1600        -8     1749
10 9E      Endeavo…  2013     1     1     1554           1600        -6     1701
# ℹ 336,766 more rows
# ℹ 11 more variables: sched_arr_time <int>, arr_delay <dbl>, flight <int>,
#   tailnum <chr>, origin <chr>, dest <chr>, air_time <dbl>, distance <dbl>,
#   hour <dbl>, minute <dbl>, time_hour <dttm>
…
Problem 9: Let’s take a look at cancellations of flights to SFO. We create a new dataframe cancellations as follows

Code

cancellations <- flights %>% 
  
  # just filter for destination == 'SFO'
  filter(dest == 'SFO') %>% 
  
  # a cancelled flight is one with no `dep_time` 
  filter(is.na(dep_time))

cancellations

# A tibble: 101 × 19
    year month   day dep_time sched_dep_time dep_delay arr_time sched_arr_time
   <int> <int> <int>    <int>          <int>     <dbl>    <int>          <int>
 1  2013     1    18       NA           1100        NA       NA           1425
 2  2013    10     2       NA            730        NA       NA           1045
 3  2013    10    17       NA           1830        NA       NA           2157
 4  2013    10    23       NA           1025        NA       NA           1340
 5  2013    10    24       NA           1025        NA       NA           1340
 6  2013    10    25       NA           1025        NA       NA           1340
 7  2013    10    26       NA            825        NA       NA           1148
 8  2013    10    27       NA            600        NA       NA            923
 9  2013    11    27       NA           1025        NA       NA           1400
10  2013    12     6       NA           1000        NA       NA           1321
# ℹ 91 more rows
# ℹ 11 more variables: arr_delay <dbl>, carrier <chr>, flight <int>,
#   tailnum <chr>, origin <chr>, dest <chr>, air_time <dbl>, distance <dbl>,
#   hour <dbl>, minute <dbl>, time_hour <dttm>
…
Code

#Which movie has the greatest number of love interests?

love_interests_movies <- age_gaps %>%
  group_by(movie_name)%>% 
  summarize(couple_number = n())%>%
  arrange(desc(couple_number))

love_interests_movies

# A tibble: 830 × 2
   movie_name                  couple_number
   <chr>                               <int>
 1 Love Actually                           7
 2 The Family Stone                        6
 3 A View to a Kill                        5
 4 He's Just Not That Into You             5
 5 Mona Lisa Smile                         5
 6 A Star Is Born                          4
 7 American Pie                            4
 8 Boogie Nights                           4
 9 Closer                                  4
10 Pushing Tin                             4
# ℹ 820 more rows
…
love_interests_actors2 <- age_gaps %>% 
  group_by(actor_name = actor_2_name)%>% 
  summarize(couple_number = n())%>%
  arrange(desc(couple_number))  

love_interests_actors<- rbind(love_interests_actors1, love_interests_actors2) %>%
  arrange(desc(couple_number))

love_interests_actors

# A tibble: 1,214 × 2
   actor_name         couple_number
   <chr>                      <int>
 1 Keanu Reeves                  24
 2 Adam Sandler                  18
 3 Roger Moore                   17
 4 Sean Connery                  15
 5 Harrison Ford                 13
 6 Keira Knightley               13
 7 Scarlett Johansson            13
 8 Johnny Depp                   12
 9 Pierce Brosnan                12
10 Leonardo DiCaprio             11
# ℹ 1,204 more rows
…
